Introducción al Análisis Demográfico con R - 2 Evaluación de información y pirámides
…
Para que funcione mejor, necesitamos que sexo sea una variable y una columna.

Vamos a utilizar tidyr::pivot_longer() para hacer “larga” nuestro data.frame

pob_mx %>% 
  tidyr::pivot_longer(cols = popM:pop,
                      values_to = "poblacion",
                      names_to = "sexo")

# A tibble: 22,725 × 7
   country_code name    year   age eda5  sexo  poblacion
          <int> <chr>  <int> <int> <fct> <chr>     <dbl>
 1          484 Mexico  1949     0 [0,5) popM       607.
 2          484 Mexico  1949     0 [0,5) popF       589.
 3          484 Mexico  1949     0 [0,5) pop       1196.
 4          484 Mexico  1949     1 [0,5) popM       546.
 5          484 Mexico  1949     1 [0,5) popF       534.
 6          484 Mexico  1949     1 [0,5) pop       1080.
 7          484 Mexico  1949     2 [0,5) popM       497.
 8          484 Mexico  1949     2 [0,5) popF       488.
 9          484 Mexico  1949     2 [0,5) pop        984.
10          484 Mexico  1949     3 [0,5) popM       461.
# ℹ 22,715 more rows
…
2.2.4 Paquete {apyramid}

Necesita que tengamos los datos quinquenales.

No acepta funciones en las variables edad y sexo

pob_mx_long %>% 
  filter(year==2020) %>% 
  count(eda5, sexo, wt=poblacion)

# A tibble: 42 × 3
   eda5    sexo      n
   <fct>   <chr> <dbl>
 1 [0,5)   popF  5142.
 2 [0,5)   popM  5327.
 3 [5,10)  popF  5487.
 4 [5,10)  popM  5683.
 5 [10,15) popF  5513.
 6 [10,15) popM  5700.
 7 [15,20) popF  5545.
 8 [15,20) popM  5699.
 9 [20,25) popF  5400.
10 [20,25) popM  5442.
# ℹ 32 more rows
…
