Introducción al Análisis Demográfico con R - 4 Tasas
…
Este crecimiento es el más utilizado.

Podemos graficar los diferentes crecimientos, será más fácil si cambiamos el formato

censos %>% 
  select(c(ano, ra, rg, r)) %>% 
  pivot_longer(-ano, names_to = "tipo", values_to = "crecimiento") 

# A tibble: 39 × 3
     ano tipo  crecimiento
   <dbl> <chr>       <dbl>
 1  1900 ra       NA      
 2  1900 rg       NA      
 3  1900 r        NA      
 4  1910 ra        0.0114 
 5  1910 rg        0.0109 
 6  1910 r         0.0108 
 7  1921 ra       -0.00496
 8  1921 rg       -0.00508
 9  1921 r        -0.00510
10  1930 ra        0.0180 
# ℹ 29 more rows
…
Vamos a volverlo quinquenal:

est %<>%
 group_by(country_code, year, eda5) %>% 
  mutate(pop=sum(pop), 
         deaths_age=sum(deaths_age)) %>% 
  select(-age) %>% 
  ungroup() %>% 
  unique()

est

# A tibble: 44 × 6
   country_code name    year   pop deaths_age eda5   
          <int> <chr>  <int> <dbl>      <dbl> <fct>  
 1          484 Mexico  1950 1209.     214.   [0,1)  
 2          484 Mexico  1950 3998.     118.   [1,5)  
 3          484 Mexico  1950 3970.      21.8  [5,10) 
 4          484 Mexico  1950 3206.       9.75 [10,15)
 5          484 Mexico  1950 2775.      12.6  [15,20)
 6          484 Mexico  1950 2462.      15.3  [20,25)
 7          484 Mexico  1950 2077.      15.8  [25,30)
 8          484 Mexico  1950 1652.      13.2  [30,35)
 9          484 Mexico  1950 1470.      17.3  [35,40)
10          484 Mexico  1950 1296.      15.3  [40,45)
# ℹ 34 more rows
…
