Introducción al Análisis Demográfico con R - 5 Migración y flujos
…
# Abel usa el paquete countrycode para generar regiones

f %>%
  mutate(
    orig = countrycode::countrycode(sourcevar = orig, # la variable de origen que tiene códigos
                                    custom_dict = dict_ims, # el diccionario a usar
                                    origin = "iso3c", # el tipo de abreviatura
                                    destination = "region"))  # que nos va a regresar

# A tibble: 307,833 × 9
   year0 orig   dest  sd_drop_neg sd_rev_neg mig_rate da_min_open da_min_closed
   <dbl> <chr>  <chr>       <dbl>      <dbl>    <dbl>       <dbl>         <dbl>
 1  1990 Africa BDI             0          0      0          0               0 
 2  1990 Africa BDI             0          0      0          0               0 
 3  1990 Africa BDI             0          0      0          0               0 
 4  1990 Africa BDI             0          0      0          0               0 
 5  1990 Africa BDI             0          0      0          0               0 
 6  1990 Africa BDI            30         30     75.7       51.3           207.
 7  1990 Africa BDI             0          0      0          0.03            0 
 8  1990 Africa BDI             0          0      0          0               0 
 9  1990 Africa BDI             0          0      0          0.06            0 
10  1990 Africa BDI             0          0      0          0               0 
# ℹ 307,823 more rows
# ℹ 1 more variable: da_pb_closed <dbl>
…
Vamos a usar “2015-2020 pseudo-Bayesian estimates for plotting” de la base de Guy Abel

pb <- d %>%
  filter(year0 == 2015) %>% # seleccionamos un año especifico
  mutate(flow = da_pb_closed/1e6) %>% # pasamos el flujo cerrado a miles
  select(orig, dest, flow) # necesitamos un objeto con estas tres variables
pb

# A tibble: 36 × 3
   orig   dest                               flow
   <chr>  <chr>                             <dbl>
 1 Africa Africa                           8.69  
 2 Africa Asia                             0.896 
 3 Africa Europe                           3.31  
 4 Africa Latin America and the Caribbean  0.0361
 5 Africa Northern America                 1.59  
 6 Africa Oceania                          0.264 
 7 Asia   Africa                           0.907 
 8 Asia   Asia                            23.8   
 9 Asia   Europe                           9.14  
10 Asia   Latin America and the Caribbean  0.233 
# ℹ 26 more rows
…
Para graficarlos mejor en el diagrama, vamos utilizar los codigos iso de tres letras para los estados:

bilateral %<>% 
  left_join(iso, join_by(cve_geo_dest==cve_geo)) %>% 
  rename(dest=iso) %>% 
  left_join(iso, join_by(cve_geo_orig==cve_geo)) %>% 
  rename(orig=iso)

Vamos a crear un objeto sólo con tres variables

bilateral %>% 
  select(orig, dest, flujo) # necesitamos un objeto con estas tres variables

# A tibble: 992 × 3
   orig  dest  flujo
   <chr> <chr> <dbl>
 1 BCN   AGU     806
 2 BCS   AGU     175
 3 CAM   AGU     138
 4 COA   AGU     960
 5 COL   AGU     418
 6 CHP   AGU     481
 7 CHH   AGU     999
 8 CDMX  AGU    6426
 9 DUR   AGU     796
10 GUA   AGU    3245
# ℹ 982 more rows
…
